{
    "KPlugin": {
        "Description": "Render to a nested window on X11 windowing system.",
        "Description[ar]": "التصيير إلى نافذة متداخلة تعمل على نظام النوافذ اكس ١١.",
        "Description[az]": "X11 pəncərə sistemində iç-içə keçmiş pəncərənin formalaşdırılması.",
        "Description[bg]": "Рендериране към вложен прозорец на х11.",
        "Description[ca@valencia]": "Renderitza a una finestra imbricada en el sistema de finestres X11.",
        "Description[ca]": "Renderitza a una finestra imbricada en el sistema de finestres X11.",
        "Description[da]": "Rendér til et indlejret vindue på X11-vinduessystemet.",
        "Description[de]": "In ein eingebettetes Fenster auf X11-Fenstersystemen rendern.",
        "Description[el]": "Αποτύπωση σε εμφωλευμένο παράθυρο σε παραθυρικό σύστημα X11.",
        "Description[en_GB]": "Render to a nested window on X11 windowing system.",
        "Description[es]": "Renderizar en una ventana anidada en el sistema de ventanas X11.",
        "Description[et]": "Pesastatud akna renderdamine X11 aknasüsteemis.",
        "Description[eu]": "Errendatu X11 leiho sistemaren leiho habiaratu batera.",
        "Description[fi]": "Hahmonna X11-ikkunointijärjestelmän sisäkkäiseen ikkunaan.",
        "Description[fr]": "Rendre sur une fenêtre imbriquée sur le système de fenêtrage X11.",
        "Description[gl]": "Renderizar unha xanela aniñada no sistema de xanelas X11.",
        "Description[hu]": "Renderelés egy X11 ablakkezelő rendszeren futó beágyazott ablakba.",
        "Description[ia]": "Render a un fenestra annidate sur systema de fenestra X11.",
        "Description[id]": "Render untuk sebuah jendela tersarang pada sistem perjendelaan X11",
        "Description[it]": "Resa in una finestra nidificata su sistema di finestre X11.",
        "Description[ko]": "X11 창 시스템에서 실행 중인 창에 렌더링합니다.",
        "Description[lt]": "Atvaizduoti į įdėtinį langą X11 langų sistemoje.",
        "Description[nl]": "Render naar een genest venster in het X11 windowingsysteem.",
        "Description[nn]": "Teikn opp til innebygd vindauge på køyrande X11-system.",
        "Description[pl]": "Wyświetlaj w zagnieżdżonym oknie w systemie okien X11.",
        "Description[pt]": "Desenhar numa janela encadeada no sistema de janelas X11.",
        "Description[pt_BR]": "Renderizar uma janela encadeada no sistema de janelas X11.",
        "Description[ro]": "Randează într-o fereastră imbricată pe sistemul de ferestre X11.",
        "Description[ru]": "Отрисовка во вложенном окне оконной системы X11.",
        "Description[sk]": "Renderovať na vnorené okno na systém okien X11.",
        "Description[sl]": "Izrisujte v gnezdeno okno na okenskem sistemu X11.",
        "Description[sr@ijekavian]": "Рендеровање у угнежђени прозор на прозорском систему Икс11.",
        "Description[sr@ijekavianlatin]": "Renderovanje u ugnežđeni prozor na prozorskom sistemu X11.",
        "Description[sr@latin]": "Renderovanje u ugnežđeni prozor na prozorskom sistemu X11.",
        "Description[sr]": "Рендеровање у угнежђени прозор на прозорском систему Икс11.",
        "Description[sv]": "Återge till ett nästlat fönster på X11-fönstersystem.",
        "Description[tr]": "X11 pencere sisteminde iç içe geçmiş bir pencereye gerçekle.",
        "Description[uk]": "Обробляти у вкладене вікно системи керування вікнами X11.",
        "Description[vi]": "Kết xuất vào một cửa sổ lồng trong hệ thống cửa sổ X11.",
        "Description[x-test]": "xxRender to a nested window on X11 windowing system.xx",
        "Description[zh_CN]": "渲染到 X11 窗口系统上的嵌套窗口中",
        "Description[zh_TW]": "成像到 X11 視窗系統的巢狀視窗。",
        "Id": "KWinWaylandX11Backend",
        "Name": "x11",
        "Name[ar]": "اكس ١١",
        "Name[az]": "x11",
        "Name[bg]": "x11",
        "Name[ca@valencia]": "X11",
        "Name[ca]": "X11",
        "Name[cs]": "x11",
        "Name[da]": "x11",
        "Name[de]": "X11",
        "Name[el]": "x11",
        "Name[en_GB]": "x11",
        "Name[es]": "x11",
        "Name[et]": "x11",
        "Name[eu]": "x11",
        "Name[fi]": "x11",
        "Name[fr]": "x11",
        "Name[gl]": "x11",
        "Name[hu]": "x11",
        "Name[ia]": "x",
        "Name[id]": "x11",
        "Name[it]": "x11",
        "Name[ja]": "x11",
        "Name[ka]": "x11",
        "Name[ko]": "x11",
        "Name[lt]": "x11",
        "Name[nl]": "x11",
        "Name[nn]": "x11",
        "Name[pa]": "x11",
        "Name[pl]": "x11",
        "Name[pt]": "X11",
        "Name[pt_BR]": "x11",
        "Name[ro]": "x11",
        "Name[ru]": "x11",
        "Name[sk]": "x11",
        "Name[sl]": "x11",
        "Name[sr@ijekavian]": "Икс11",
        "Name[sr@ijekavianlatin]": "X11",
        "Name[sr@latin]": "X11",
        "Name[sr]": "Икс11",
        "Name[sv]": "X11",
        "Name[tr]": "x11",
        "Name[uk]": "x11",
        "Name[vi]": "x11",
        "Name[x-test]": "xxx11xx",
        "Name[zh_CN]": "x11",
        "Name[zh_TW]": "x11"
    }
}
